ep,avg,min,max
0,1.0,1,1
20,15.95,-6,65
40,16.6,-3,82
60,16.6,-4,71
80,20.75,-1,89
100,17.65,-3,81
120,10.35,-3,55
140,3.95,-5,24
160,16.75,-6,53
180,14.7,-3,38
200,13.3,-4,52
220,9.65,-5,39
240,10.1,-8,36
260,14.8,0,49
280,14.15,-5,57
300,13.15,-6,73
320,17.0,-1,68
340,5.0,-6,18
360,9.35,-4,39
380,10.9,-2,81
400,9.55,-5,31
420,11.2,-6,31
440,2.6,-4,31
460,10.5,-5,48
480,6.85,-4,46
500,6.6,-6,40
520,10.4,-5,58
540,8.5,-5,39
560,6.1,-3,38
580,11.6,-4,56
600,8.5,-4,35
620,6.75,-4,52
640,10.0,-3,37
660,4.75,-6,43
680,19.75,-3,169
700,48.85,-4,222
720,5.55,-5,20
740,9.1,-4,43
760,10.1,-2,34
780,9.65,-2,94
800,12.25,-3,75
820,9.15,-3,22
840,10.45,-6,51
860,9.2,-6,39
880,9.35,-6,55
900,15.85,-3,110
920,14.7,-8,54
940,13.4,0,79
960,10.25,-3,64
980,18.05,-5,87
1000,12.0,-2,37
1020,11.4,-4,40
1040,23.15,-2,146
1060,12.4,-5,71
1080,7.65,-4,42
1100,6.75,-3,21
1120,13.3,-3,68
1140,8.25,-4,33
1160,6.25,-2,23
1180,13.15,-5,65
1200,13.45,-5,132
1220,29.45,0,109
1240,14.15,-1,60
1260,13.35,-3,65
1280,14.65,-2,62
1300,7.35,-2,26
1320,10.3,-2,39
1340,10.65,-5,38
1360,11.8,-5,46
1380,12.65,-6,70
1400,13.55,-2,46
1420,13.25,-5,82
1440,11.2,-4,39
1460,16.85,-1,62
1480,10.6,-5,69
