# Learning rate: 0.8 -> 0.1 in 1000 episodes
# Discount: 0.999
# Episodes: 2000
# Epsilon: 0.6 -> 0.0 in 1000 episodes
# Iterations: 500
# Setpoint angle: 1.647081468459893
# Angle min: -3.352918531540107
# Angle max: 6.647081468459893
# Discrete angles: 21
# Action min: -2400
# Action max: 2400
# Discrete actions: 3
# Show every: 20
# Max error: 2
# Reward: Gaussian function
# Q_table shape: (21, 3)
# Init Q_table: 
0.000000 0.000000 0.000000
0.000000 0.000000 0.000000
0.000000 0.000000 0.000000
0.000000 0.000000 0.000000
0.000000 0.000000 0.000000
0.000000 0.000000 0.000000
0.000000 0.000000 0.000000
0.000000 0.000000 0.000000
0.000000 0.000000 0.000000
0.000000 0.000000 0.000000
0.000000 0.000000 0.000000
0.000000 0.000000 0.000000
0.000000 0.000000 0.000000
0.000000 0.000000 0.000000
0.000000 0.000000 0.000000
0.000000 0.000000 0.000000
0.000000 0.000000 0.000000
0.000000 0.000000 0.000000
0.000000 0.000000 0.000000
0.000000 0.000000 0.000000
0.000000 0.000000 0.000000
