# Learning rate: 0.7
# Discount: 0.999
# Episodes: 1000
# Epsilon: 0.6
# Iterations: 200
# Setpoint angle: 2.3845883137902093
# Angle min: -8.3845883137902093
# Angle max: 12.3845883137902093
# Discrete angles: 21
# Action min: -16000
# Action max: 16000
# Discrete actions: 21
# Show every: 10
# Max error: 5
# Q_table shape: (21, 21)
-134.923967 -134.649008 -134.510045 -134.575091 -45.554165 -134.852196 -134.786340 -134.551637 -134.633353 -134.594552 -134.464390 -134.898333 -134.814287 -134.614582 -134.873295 -134.939037 -134.758698 -134.861349 -134.621473 -134.965715 -134.935094
-85.619798 -85.563306 -54.161589 -86.485261 -107.198241 -87.789498 -90.636173 -98.974091 -89.384556 -95.321219 -92.343431 -95.314056 -85.526794 -96.430762 -90.154940 -87.774600 -85.538598 -107.591898 -84.467188 -87.283539 -84.837768
-75.489968 -83.905138 -78.656142 -92.987525 -77.725824 -79.217107 -75.866665 -76.117345 -76.958628 -77.622915 -75.300500 -75.582893 -84.589662 -32.048362 -77.213156 -80.038721 -83.832080 -98.166398 -80.466749 -76.639876 -92.284752
-68.372050 -60.352106 -64.978637 -65.410833 -70.540032 -69.234863 -70.812318 -63.989731 -73.289950 -65.083903 -63.351000 -62.514467 -66.904074 -62.899780 -66.588091 -65.815904 -64.242856 -63.442635 -66.990728 -67.246079 -67.085458
-25.600276 -68.225313 -63.919249 -59.561421 -58.226342 -56.340543 -58.125437 -60.705453 -62.474074 -60.490399 -66.346255 -60.302760 -61.422315 -57.896691 -57.074493 -62.764597 -64.057580 -56.277310 -58.499458 -67.999128 -57.191695
-44.468600 -45.781664 -51.488145 -57.654754 -45.361615 -48.886398 -45.626568 -48.049966 -59.701658 -45.183773 -52.670303 -49.846175 -49.791438 -53.400469 -48.116989 -45.986885 -45.665684 -51.074987 -53.087123 -46.516228 -47.926251
-46.994517 -41.291055 -44.911381 -44.499223 -50.190052 -39.495426 -48.211696 -40.730821 -44.578052 -45.808380 -48.905682 -38.093694 -50.587227 -45.318201 -43.132465 -42.978047 -49.201868 -43.402799 -47.724829 -45.803461 -47.040955
-30.364005 -21.758117 -27.915373 -32.670983 -33.180706 -35.119871 -30.422154 -27.467418 -36.730734 -28.616189 -28.777176 -28.815065 -33.906479 -37.268997 -30.535337 -28.225620 -31.351229 -52.151090 -34.788790 -27.169315 -27.594934
-27.368626 -28.195931 -27.986591 -30.089649 -29.624392 -27.940359 -26.476172 -27.675830 -32.519213 -27.089375 -44.199572 -25.891449 -33.021619 -26.801897 -32.999904 -23.276647 -27.527250 -28.633166 -29.735919 -27.736651 -30.807543
-25.551100 -31.055714 -24.565998 -22.022033 -28.149001 -28.537207 -21.893389 -21.988479 -27.996472 -22.591758 -22.465937 -23.806613 -28.754378 -25.887251 -30.674951 -31.525020 -49.502633 -28.956704 -22.468408 -31.976774 -23.571579
-29.521636 -20.201939 -38.400016 -29.880455 -33.393858 -33.442111 -33.328556 -31.601001 -34.401074 -29.098857 -30.270800 -30.253781 -29.012921 -35.497840 -30.584285 -32.160323 -36.120735 -31.530183 -36.324366 -33.354726 -29.419930
-38.425646 -38.414600 -45.625742 -46.731697 -38.658997 -49.447599 -39.376273 -41.169724 -37.798526 -38.595250 -38.950045 -39.977537 -52.202638 -49.060138 -39.459535 -41.029880 -38.755474 -62.122584 -50.520704 -45.673971 -40.498501
-58.061988 -56.664831 -54.308461 -68.338948 -51.544393 -59.621993 -57.932114 -54.089050 -66.607566 -57.723085 -50.290524 -63.951183 -59.419346 -53.817758 -22.096746 -56.100857 -50.714064 -66.386855 -57.161199 -50.310491 -55.248322
-67.400919 -68.139979 -68.586864 -71.642345 -63.895767 -64.843528 -64.955421 -72.280242 -65.703386 -76.696767 -79.662516 -64.848222 -77.811308 -76.187667 -64.723015 -65.746594 -69.607592 -65.577299 -68.949711 -63.052884 -47.199780
-78.106248 -78.253437 -87.488795 -96.289720 -24.983958 -84.875226 -93.900066 -78.674483 -87.055539 -80.758136 -83.613432 -88.296401 -86.986080 -82.804623 -86.631968 -88.792727 -91.559264 -81.304005 -81.861954 -87.196640 -79.947784
-92.325315 -95.759113 -90.503692 -95.797674 -94.999469 -94.757610 -99.238311 -101.379159 -95.479943 -91.386242 -105.395779 -101.829581 -93.951341 -101.793481 -99.181935 -54.513479 -92.252222 -92.254435 -107.113959 -91.353306 -92.262506
-107.296294 -110.910729 -104.006345 -110.198011 -120.281023 -115.886836 -111.017972 -120.410772 -117.215051 -107.803532 -114.499429 -109.149396 -113.885231 -107.938907 -36.452421 -123.342252 -111.575101 -119.032887 -107.368143 -106.747132 -109.427962
-116.733357 -118.290690 -116.521322 -115.692650 -122.941826 -115.665824 -127.075398 -130.977229 -115.722820 -120.809969 -115.636374 -124.861052 -116.589044 -124.892649 -117.516548 -65.896877 -116.413560 -118.292091 -118.976151 -115.782741 -115.706703
-142.004537 -162.480988 -134.581401 -58.548777 -143.847863 -135.056266 -133.137783 -141.411936 -149.431215 -136.843102 -137.333998 -142.099335 -134.135656 -135.842429 -147.849918 -142.195502 -149.966242 -150.871541 -135.455001 -141.160477 -154.912831
-150.573418 -147.699746 -150.391068 -153.037508 -172.446953 -170.570125 -155.744682 -178.233428 -165.249835 -159.684138 -158.096100 -174.583735 -168.503912 -175.202474 -153.002470 -87.867301 -161.202826 -164.906065 -149.570730 -155.546496 -157.330102
-202.525260 -200.386148 -199.981844 -202.750769 -202.501698 -200.246560 -202.798346 -202.648323 -199.974290 -200.345378 -202.539065 -202.872101 -202.772797 -203.045811 -200.168887 -200.002132 -83.484352 -200.357406 -200.382805 -200.023585 -202.983117
