# Array shape: (21, 7)
376.097757 376.093809 376.079625 376.050311 375.947060 376.116164 0.000000
377.174768 376.813106 378.097312 377.780555 377.697355 377.526880 0.000000
378.118323 378.343573 378.378397 378.372299 378.268833 378.205511 0.000000
379.656844 380.316251 380.275534 380.282592 379.014315 378.569806 0.000000
380.454747 380.490745 380.325529 380.555313 380.496087 380.358787 0.000000
380.657477 381.483937 381.500603 381.362141 381.291322 381.423821 0.000000
381.957215 382.907377 383.107707 382.847541 382.796627 383.072282 0.000000
385.343126 386.271218 385.931782 385.151625 384.469202 385.646149 0.000000
386.339456 387.372413 575.877353 386.512010 387.757660 387.763726 0.000000
295.278214 289.931243 305.733754 583.659942 298.473858 305.194849 0.000000
269.077983 272.751770 271.540187 590.957119 270.946674 267.847173 0.000000
265.111953 264.998524 263.556404 265.029716 582.389885 265.273345 0.000000
261.447775 260.130467 260.917940 260.668847 469.197459 260.095561 0.000000
257.451812 257.573596 256.492387 256.601924 257.714018 279.175513 0.000000
255.747304 255.513611 255.299836 255.723613 255.529902 255.767287 0.000000
254.033229 254.293407 254.671705 254.635305 254.309825 254.108530 0.000000
253.287966 253.393563 253.471289 254.019586 253.894191 253.513890 0.000000
253.324322 253.253827 252.656514 252.875226 252.773570 252.237173 0.000000
252.585544 251.931546 252.014129 251.331485 252.653909 252.223114 0.000000
251.307487 251.561812 251.823748 251.732458 251.505651 251.349451 0.000000
251.191320 251.138655 251.030428 251.154578 251.029347 251.228656 0.000000
